# ---------- Initialize Simulation --------------------- 
clear 
units metal 
boundary p p p 

#----------- Read Topology of Input Configuration ------------
#box tilt large
read_data struct.lmp

# ---------- Define Interatomic Potential -------------------- 
pair_style mlip mlip.ini 
pair_coeff * * 

# ---------- Define Settings --------------------- 
compute eng all pe/atom 
compute eatoms all reduce sum c_eng 

# ---------- Run Minimization --------------------- 
reset_timestep 0 
#fix 1 all box/relax iso 0.0 vmax 0.001

thermo_style custom step pe lx ly lz press pxx pyy pzz c_eatoms 
thermo 10 


#dump 1 all custom 1 run.atom id type xs ys zs
min_style cg # conjugate gradient
minimize 1.0e-6 1.0e-4 100000 1000000

write_data end.lmp
